"interactionTypeId","interactionTypeName","createdAt","updatedAt"
1,"REP_VISIT","2015-10-29 01:37:00","2015-10-29 01:37:00"
2,"REP_SEND","2015-10-29 01:37:00","2015-10-29 01:37:00"
3,"REP_UNAVAILABLE","2015-10-29 01:37:00","2015-10-29 01:37:01"
4,"VISIT","2015-10-29 01:37:00","2015-10-29 01:37:00"
5,"SEND","2015-10-29 01:37:00","2015-10-29 01:37:00"
6,"OTHER","2015-10-29 01:37:00","2015-10-29 01:37:00"
7,"GROUP_VISIT","2015-10-29 01:37:00","2015-10-29 01:37:00"
10,"TOUCH","2015-10-29 01:37:01","2015-10-29 01:37:01"
11,"SEND_ANY","2015-10-29 01:37:01","2015-10-29 01:37:01"
12,"WEB_INTERACTION","2016-05-27 17:39:11","2016-05-27 17:39:11"
