repId, StartDateLocalSynched, runId, Times_Synched
1007,2018-02-02,2,2.0
1003,2018-02-03,3,2.0
1004,2018-02-03,3,2.0
1004,2018-02-01,1,2.0
1005,2018-02-01,1,2.0
1002,2018-02-03,3,2.0
1009,2018-02-02,2,2.0
1003,2018-02-02,2,2.0
1010,2018-02-02,2,2.0
1003,2018-02-01,1,2.0
1002,2018-02-01,1,2.0
1001,2018-02-03,3,2.0
1006,2018-02-01,1,2.0
1008,2018-02-02,2,2.0
1008,2018-02-03,3,2.0
1004,2018-02-02,2,2.0
1005,2018-02-03,3,2.0
1007,2018-02-01,1,2.0
1009,2018-02-03,3,2.0
1001,2018-02-01,1,2.0
1005,2018-02-02,2,2.0
1010,2018-02-01,1,2.0
1001,2018-02-02,2,2.0
1006,2018-02-03,3,2.0
1006,2018-02-02,2,2.0
1010,2018-02-03,3,2.0
1009,2018-02-01,1,2.0
1002,2018-02-02,2,2.0
1007,2018-02-03,3,2.0
1008,2018-02-01,1,2.0
